<?xml version="1.0" encoding="UTF-8" standalone="no"?>
<svg
   xmlns:dc="http://purl.org/dc/elements/1.1/"
   xmlns:cc="http://creativecommons.org/ns#"
   xmlns:rdf="http://www.w3.org/1999/02/22-rdf-syntax-ns#"
   xmlns:svg="http://www.w3.org/2000/svg"
   xmlns="http://www.w3.org/2000/svg"
   viewBox="0 0 31.25 31.25"
   height="31.25"
   width="31.25"
   xml:space="preserve"
   version="1.1"
   id="svg2"><metadata
     id="metadata8"><rdf:RDF><cc:Work
         rdf:about=""><dc:format>image/svg+xml</dc:format><dc:type
           rdf:resource="http://purl.org/dc/dcmitype/StillImage" /></cc:Work></rdf:RDF></metadata><defs
     id="defs6" /><g
     transform="matrix(1.25,0,0,-1.25,0,31.25)"
     id="g10"><g
       transform="scale(0.1,0.1)"
       id="g12"><path
         id="path14"
         style="fill:#85cddb;fill-opacity:1;fill-rule:nonzero;stroke:none"
         d="m 81.7578,156.066 c -4.1797,0 -7.0898,-0.277 -8.6133,-0.695 l 0,-27.668 c 1.7969,-0.406 3.8868,-0.555 7.0899,-0.555 11.25,0 18.2031,5.704 18.2031,15.157 0,8.613 -5.9766,13.761 -16.6797,13.761" /><path
         id="path16"
         style="fill:#85cddb;fill-opacity:1;fill-rule:nonzero;stroke:none"
         d="m 197.832,153.703 -25.586,0 0,-75.8905 -21.133,0 0,75.8905 -25.293,0 0,17.781 72.012,0 0,-17.781 z m -87.031,-32.949 c -7.227,-6.66 -17.9104,-9.863 -30.4299,-9.863 -2.793,0 -5.2734,0.156 -7.2266,0.562 l 0,-33.6405 -20.9765,0 0,92.4295 c 6.5234,1.106 15.7031,1.946 28.6133,1.946 13.0859,0 22.3827,-2.5 28.6327,-7.649 6.133,-4.578 10.02,-12.371 10.02,-21.531 0,-9.317 -2.93,-17.102 -8.633,-22.254 z M 125,250 C 55.957,250 0,194.035 0,125 0,55.9766 55.957,0 125,0 c 69.023,0 125,55.9766 125,125 0,69.035 -55.977,125 -125,125" /></g></g></svg>